{
  "login-success": "Hello there",
  "login-failed": "login or password not correct",
  "dashboard-swipe-to-alert": "Swipe to send an alert",
  "dashboard-swipe-to-cancel-alert": "Swipe to cancel the alert",
  "dashboard-alert-no-favorites": "No favorites contacts",
  "dashboard-error-no-favorites": "Warning: No contacts in favorites",
  "dashboard-launch-alert": "Send an alert",
  "dashboard-modify-alert": "Modify the alert",
  "dashboard-cancel-alert": "Cancel the alert",
  "dashboard-alert-sent": "Alert sent",
  "dashboard-alert-ended": "Alert ended",
  "dashboard-send-notif-question": "Are you sure you want to launch the alert ?",
  "dashboard-end-alert-question": "Are you sure you want to end this activity ?",
  "dashboard-delete-activity-question": "Are you sure you want to delete this activity ?",
  "dashboard-send-notif-confirmation": "Launch alert",
  "dashboard-send-notif-confirmed": "Alert sent",
  "dashboard-send-notif-activity": "Launch alert",
  "dashboard-terminate-activity": "End activity",
  "dashboard-emergency-contacts": "Emergency contacts",
  "dashboard-has-been-alerted": "has been alerted",
  "dashboard-timelimit-reached": "Time limit reached",
  "dashboard-time-remaining": "Time remaining",
  "dashboard-time-imminent": "imminent",
  "dashboard-start-remaining": "Starts in",
  "dashboard-activities-in-progress": "Activities in progress",
  "dashboard-update-current-activity": "Update activity",
  "dashboard-choose-contact-alert": "Send alert to",
  "activity-menu-choice-activate": "Activate model",
  "activity-menu-choice-modify": "Modify",
  "activity-menu-choice-duplicate": "Duplicate",
  "activity-menu-choice-delete": "Delete",
  "activity-confirm-delete-model": "Delete model",
  "activity-add-model": "Add an activity model",
  "activity-modify-model": "Modify this activity model",
  "activity-begin-activity": "Begin activity",
  "activity-select-more-contacts": "Select contacts",
  "activity-assign-contact": "Please assign at least one person",
  "activity-select-to-notify": "Select the contacts you want to notify",
  "activity-delete-constraint": "Delete the constraint",
  "activity-set-correctly-constraints": "Please set correctly all the constraints",
  "activity-select-setup-messages": "Setup message",
  "activity-select-setup-contraints": "Setup constraints",
  "activity-edit-title": "Edit title",
  "activity-edit-message": "Edit message",
  "activity-name-error": "invalid input format",
  "activity-choose-icon": "Choose a new icon",
  "activity-edit-icon": "Edit activity icon",
  "activity-model-start": "Start an activity",
  "activity-model-create": "New model",
  "activity-model-update": "Update model",
  "activity-model-create-title": "New model",
  "activity-default-message": "I may have a problem, please call me ASAP. Not a joke.",
  "activityform-msg": "updated message",
  "activityform-msg-fail": "Failed updating message",
  "activityform-info-fail": "Failed updating infos",
  "activityform-info": "updated infos",
  "activityform-contacts": "updated contacts",
  "activityform-contacts-fail": "Failed updating contacts",
  "activityform-constraints": "updated constraints",
  "activityform-constraints-fail": "Failed updating constraints",
  "activityform-activity-model": "new activity model posted",
  "activityform-activity": "new activity posted",
  "activityform-activity-model-fail": "Failed posting activity model",
  "activityform-activity-fail": "Failed posting activity",
  "activityform-confirm-activity-title": "Confirm activity title",
  "activityform-confirm-activity-message": "Confirm activity message",
  "activityform-confirm-recipient": "Confirm recipient",
  "activityform-set-all-constaint": "Please set correctly all the constraints",
  "activityform-delete-constaint-tip": "delete constraint",
  "activityform-info-tip": "info on constraint",
  "activityform-model-setup-timer": "Basic offset setup in day/hour/min",
  "user-fetch-error": "Error fetching user",
  "contact-add": "Add contact",
  "contact-set-favorite": "emergency contact",
  "contact-adda": "Add a contact",
  "contact-modify": "Modify contact",
  "contact-delete": "Delete contact",
  "contact-deletee": "Delete contact",
  "contact-put-favorite": "set in favorites",
  "contact-notput-favorite": "unset from favorites",
  "contact-search-on-iqiper": "Search on Iqiper",
  "contact-save-mail": "Save a contact using mail",
  "contact-mail-not-correct": "invalid input format",
  "contact-form-user-not-found": "User not found",
  "contact-form-update-intro": "Change his/her nickname",
  "contact-form-update-label": "New nickname",
  "contact-form-nickname-intro": "Give him/her a nickname",
  "contact-form-nickname-label": "nickname",
  "contact-form-nickname-hint": "",
  "contact-form-username-label": "Username",
  "contact-form-username-hint": "",
  "contact-form-email-label": "e-mail",
  "contact-form-email-hint": "",
  "report-fix-activity": "Fix alert",
  "report-alert-fixed": "Alert fixed",
  "report-fix-alert-question": "Are you sure you want to fix this alert ?",
  "report-delete-question": "Are you sure you want to delete this report ?",
  "report-choice-show": "Show details",
  "report-choice-delete": "Delete activity report",
  "report-confirm-delete": "Report deleted",
  "report-updated": "Updated report",
  "report-update-failed": "Failed update report",
  "report-no-more-correction": "There is no alert in progress for this activity",
  "report-alert": "Alert",
  "report-correction": "Alert fixed",
  "username-not-correct": "invalid input format",
  "timer-description": "if not disabled before the end, an alert is sent to the chosen contacts of this activity",
  "timer-incorrect-format": "Incorrect format time",
  "timer-start-after-end": "End time value must happen after start time",
  "timer-start-different-end": "start and end time must be different",
  "msg-alert-error": "invalid input format, no newline",
  "message-preview": "Message preview",
  "no-activities": "No activity running",
  "no-contacts": "No contacts to show",
  "no-models": "No models to show",
  "no-reports": "No reports to show",
  "server-error": "Can't reach the server",
  "error-occured": "Sorry, an error occured",
  "refresh": "refresh",
  "offset-incorrect-format": "incorrect format offset",
  "offset-incorrect-value": "incorrect offset value",
  "offset-is-zero": "end offset equal zero",
  "offset-recall-to-high": "recall offset must be set between start and end",
  "offset-countdown-string-d": " d ",
  "activity": "activity",
  "start-date": "Started",
  "end-date": "Ended",
  "running": "running",
  "msg-to": "sent to",
  "and": "and",
  "save": "Save",
  "next": "Next",
  "duplicated": "duplicated",
  "duplicated-fail": "Failed to duplicate activity",
  "delete": "Delete",
  "deleted": "deleted",
  "deleted-contact-fail": "Failed to erase contact",
  "delete-fail": "Failed to erase activity",
  "delete-account-fail": "Failed to delete account",
  "return": "return",
  "search": "search",
  "wish-to-delete": "Do you wish to delete",
  "constraints": "Constraints",
  "start": "START",
  "end": "END",
  "start-offset": "START AFTER",
  "end-offset": "END AFTER",
  "recall": "RECALL",
  "edit-message": "MESSAGE",
  "edit-message-dialog": "Edit message",
  "language": "Language",
  "theme": "Theme",
  "keycloak-settings": "Account settings",
  "logout": "Log out",
  "destroy-user": "Delete account",
  "destroy-user-question": "Are you sure you want to delete this account ?",
  "destroy-user-confirmation": "Delete account",
  "dashboard": "Home",
  "contacts": "Contacts",
  "reason": "Reason",
  "message": "Message",
  "activities": "Activities",
  "reports": "Reports",
  "options": "Options",
  "cancel": "Cancel"
}