{
  "login-success": "Bienvenu",
  "login-failed": "identifiant ou mot de passe incorrecte",
  "dashboard-swipe-to-alert": "Envoyer une alerte",
  "dashboard-swipe-to-cancel-alert": "Annuler l'alerte",
  "dashboard-alert-no-favorites": "Aucun contact en favoris",
  "dashboard-error-no-favorites": "Erreur: Aucun contact en favoris",
  "dashboard-launch-alert": "Lancer une alerte",
  "dashboard-modify-alert": "Modifier l'alerte",
  "dashboard-cancel-alert": "Annuler l'alerte",
  "dashboard-alert-sent": "Alerte envoyée",
  "dashboard-alert-ended": "Alerte terminée",
  "dashboard-send-notif-question": "Voulez-vous vraiment déclencher l'alerte ?",
  "dashboard-end-alert-question": "Voulez-vous vraiment terminer cette activité ?",
  "dashboard-delete-activity-question": "Voulez-vous vraiment supprimer cette activité ?",
  "dashboard-send-notif-confirmation": "Déclencher l'alerte",
  "dashboard-send-notif-confirmed": "Alerte envoyée",
  "dashboard-send-notif-activity": "Déclencher l'alerte",
  "dashboard-terminate-activity": "Fin",
  "dashboard-emergency-contacts": "Contacts d'urgence",
  "dashboard-has-been-alerted": "a été alerté",
  "dashboard-timelimit-reached": "Temps dépassé",
  "dashboard-time-remaining": "Temps restant",
  "dashboard-time-imminent": "imminent",
  "dashboard-start-remaining": "Débute dans",
  "dashboard-activities-in-progress": "Activités en cours",
  "dashboard-update-current-activity": "Modifier l'activité",
  "dashboard-choose-contact-alert": "Envoyer l'alerte à",
  "activity-menu-choice-activate": "Activer ce modèle",
  "activity-menu-choice-modify": "Modifier",
  "activity-menu-choice-duplicate": "Dupliquer",
  "activity-menu-choice-delete": "Supprimer",
  "activity-confirm-delete-model": "Supprimer le modèle",
  "activity-add-model": "Ajouter un modèle d'activité",
  "activity-modify-model": "Modifier un modèle d'activité",
  "activity-begin-activity": "Commence l'activité",
  "activity-select-more-contacts": "Sélectionner un contact",
  "activity-assign-contact": "Veuillez assigner au moins une personne",
  "activity-select-to-notify": "Sélectionnez les contacts à notifier",
  "activity-delete-constraint": "Supprimer la contrainte",
  "activity-set-correctly-constraints": "Veuillez vérifier les contraintes",
  "activity-select-setup-messages": "Configurez le message",
  "activity-select-setup-contraints": "Configurez les contraintes",
  "activity-edit-title": "Editez le titre",
  "activity-edit-message": "Editez le message",
  "activity-name-error": "entrée non-conforme",
  "activity-choose-icon": "Choisissez une nouvelle icône",
  "activity-edit-icon": "Éditez l'icône de l'activité",
  "activity-model-start": "Démarrer une activité",
  "activity-model-create": "Nouveau model",
  "activity-model-update": "Modifier model",
  "activity-model-create-title": "Activité",
  "activity-default-message": "J'ai peut être un problème, essayez de me joindre rapidement s'il vous plait. Pas une blague.",
  "activityform-msg": "message actualisé",
  "activityform-msg-fail": "Échec actualisation message",
  "activityform-info": "infos sauvegardées",
  "activityform-info-fail": "Échec actualisation infos",
  "activityform-contacts": "contacts sauvegardés",
  "activityform-contacts-fail": "Échec actualisation contacts",
  "activityform-constraints": "contraintes sauvegardées",
  "activityform-constraints-fail": "Échec actualisation constraints",
  "activityform-activity-model": "nouveau modèle sauvegardé",
  "activityform-activity": "nouvelle activité sauvegardée",
  "activityform-activity-model-fail": "Échec sauvegarde modèle",
  "activityform-activity-fail": "Échec sauvegarde activité",
  "activityform-confirm-activity-title": "Confirmez le nom de l'activité",
  "activityform-confirm-activity-message": "Confirmez le message de l'activité",
  "activityform-confirm-recipient": "Confirmez les informations",
  "activityform-set-all-constaint": "Veuillez vérifier les contraintes",
  "activityform-delete-constaint-tip": "supprimer la contrainte",
  "activityform-info-tip": "info sur la contrainte",
  "activityform-model-setup-timer": "Configuration de l'offset en jour/heure/min",
  "user-fetch-error": "Erreur récupération utilisateur",
  "contact-add": "Ajouter un contact",
  "contact-set-favorite": "Contact d'urgence",
  "contact-adda": "Ajouter un contact",
  "contact-modify": "Modifier le contact",
  "contact-delete": "Supprimer le contact",
  "contact-deletee": "Supprimer contact",
  "contact-put-favorite": "mis en favoris",
  "contact-notput-favorite": "n'est plus en favoris",
  "contact-search-on-iqiper": "Rechercher sur Iqiper",
  "contact-save-mail": "Enregister un contact par email",
  "contact-mail-not-correct": "entrée non-conforme",
  "contact-form-user-not-found": "Utilisateur introuvable",
  "contact-form-update-intro": "Modifiez son surnom",
  "contact-form-update-label": "Nouveau surnom",
  "contact-form-nickname-intro": "Donnez lui un surnom",
  "contact-form-nickname-label": "Surnom",
  "contact-form-nickname-hint": "",
  "contact-form-username-label": "Nom d'utilisateur",
  "contact-form-username-hint": "",
  "contact-form-email-label": "email",
  "contact-form-email-hint": "",
  "report-fix-activity": "Corriger l'alerte",
  "report-alert-fixed": "Alerte corrigée",
  "report-fix-alert-question": "Voulez-vous vraiment corriger l'alerte ?",
  "report-delete-question": "Voulez-vous vraiment supprimer l'alerte ?",
  "report-choice-show": "Visualiser le rapport d'activité",
  "report-choice-delete": "Supprimer le rapport d'activité",
  "report-confirm-delete": "Rapport supprimé",
  "report-updated": "rapport mis à jour",
  "report-update-failed": "Échec actualisation rapport",
  "report-no-more-correction": "Il n'y a aucune alerte en cours pour cette activité",
  "report-alert": "Alerte",
  "report-correction": "Correction d'alerte",
  "username-not-correct": "entrée non-conforme",
  "timer-description": "Si vous ne l'avez pas désactivée avant la fin, une alerte est envoyée aux contacts de cette activité",
  "timer-incorrect-format": "format de date incorrecte",
  "timer-start-after-end": "la date de début doit être supérieure à la date de fin",
  "timer-start-different-end": "les dates de début et de fin doivent être différentes",
  "msg-alert-error": "entrée non-conforme, pas de saut de ligne",
  "message-preview": "Aperçu message",
  "no-activities": "Pas d'activité en cours",
  "no-contacts": "Pas de contacts",
  "no-models": "Pas de models",
  "no-reports": "Pas de rapports",
  "server-error": "Erreur connexion serveur",
  "error-occured": "Oups, une erreur est survenue...",
  "refresh": "rafraîchir",
  "offset-incorrect-format": "format de l'offset incorrect",
  "offset-incorrect-value": "valeur de l'offset incorrect",
  "offset-is-zero": "l'offset de la fin de l'activité est égal à zéro",
  "offset-recall-to-high": "l'offset rappel doit etre entre debut et fin",
  "offset-countdown-string-d": " j ",
  "activity": "activité",
  "start-date": "Début",
  "end-date": "Fin",
  "running": "en cours",
  "msg-to": "envoyé a",
  "and": "et",
  "save": "Sauvegarder",
  "next": "Suivant",
  "duplicated": "dupliqué",
  "duplicated-fail": "Échec copie activité",
  "delete": "Supprimer",
  "deleted": "supprimé",
  "deleted-contact-fail": "Échec supression contact",
  "delete-fail": "Échec supression activité",
  "delete-account-fail": "Échec suppression compte",
  "return": "retour",
  "search": "chercher",
  "wish-to-delete": "Voulez-vous vraiment supprimer",
  "constraints": "Contraintes",
  "start": "DÉBUT",
  "end": "FIN",
  "start-offset": "DÉBUT",
  "end-offset": "FIN",
  "recall": "RAPPEL",
  "edit-message": "MESSAGE",
  "edit-message-dialog": "Édition message",
  "language": "Langage",
  "theme": "Thème",
  "keycloak-settings": "Paramètre utilisateur",
  "logout": "Déconnexion",
  "destroy-user": "Supprimer compte",
  "destroy-user-question": "Voulez-vous vraiment supprimer votre compte ?",
  "destroy-user-confirmation": "Supprimer compte",
  "dashboard": "Accueil",
  "contacts": "Contacts",
  "reason": "Raison",
  "message": "Message",
  "activities": "Activités",
  "reports": "Rapports",
  "options": "Options",
  "cancel": "Annuler"
}